{
  "facebook": {
    "appId": "1142931515765836",
    "secret": "00ebca3208bbb236a3330f45056e25aa"
  },
  "instagram" : {
    "clientId" : "cb0148143cfe4f58baf6781d320a7e52",
    "secret" : "1c29309a82884057a1f9e148a9e41df0"
  },
  "public": {
    "facebook": {
      "permissions": [
        "basic_info"
      ],
      "profileFields": [
        "name",
        "gender",
        "location"
      ]
    },
    "instagram" : {
      "scope" : "basic"
    }
  },
  "private": {}
}
